<?xml version="1.0" encoding="utf-8"?>
<!-- Generator: Adobe Illustrator 15.0.0, SVG Export Plug-In . SVG Version: 6.00 Build 0)  -->
<!DOCTYPE svg PUBLIC "-//W3C//DTD SVG 1.1//EN" "http://www.w3.org/Graphics/SVG/1.1/DTD/svg11.dtd">
<svg version="1.1" id="Layer_1" xmlns="http://www.w3.org/2000/svg"  x="0px" y="0px"
	 width="100px" height="100px" viewBox="0 0 100 100" enable-background="new 0 0 100 100" xml:space="preserve">
<path fill="#BCBEC0" d="M97.874,64.16c0,18.619-15.095,33.713-33.715,33.713H35.841c-18.621,0-33.715-15.094-33.715-33.713V35.84
	c0-18.619,15.094-33.713,33.715-33.713h28.318c18.62,0,33.715,15.094,33.715,33.713V64.16z"/>
</svg>
