<?xml version="1.0" encoding="utf-8"?>
<!-- Generator: Adobe Illustrator 15.0.0, SVG Export Plug-In . SVG Version: 6.00 Build 0)  -->
<!DOCTYPE svg PUBLIC "-//W3C//DTD SVG 1.1//EN" "http://www.w3.org/Graphics/SVG/1.1/DTD/svg11.dtd">
<svg version="1.1" id="Layer_1" xmlns="http://www.w3.org/2000/svg"  x="0px" y="0px"
	 width="100px" height="100px" viewBox="0 0 100 100" enable-background="new 0 0 100 100" xml:space="preserve">
<g>
	<path fill="#BCBEC0" d="M16.271,83.484c-6.86-4.041-12.416-13.86-12.347-21.821l0.211-24.128
		c0.069-7.962,5.796-17.684,12.726-21.605L37.864,4.047c6.93-3.921,18.213-3.822,25.073,0.219l20.791,12.247
		c6.859,4.042,12.416,13.862,12.348,21.824l-0.213,24.129c-0.068,7.961-5.795,17.685-12.727,21.604L62.135,95.953
		c-6.93,3.92-18.212,3.822-25.072-0.219L16.271,83.484z"/>
</g>
</svg>
